# Blender v2.79 (sub 0) OBJ File: ''
# www.blender.org
v 4.000000 6.005568 -4.000000
v 4.000000 6.005568 4.000000
v -4.000000 6.005568 3.999999
v -3.999999 6.005568 -4.000001
v 4.000002 7.300000 -3.999998
v 3.999997 7.300000 4.000002
v -4.000001 7.300000 3.999999
v -4.000000 7.300000 -4.000000
v 4.000000 6.005568 0.000000
v 0.000001 6.005568 -4.000000
v 0.000000 6.005568 4.000000
v -4.000000 6.005568 -0.000001
v 0.000000 6.005568 -0.000000
v 4.000000 6.005568 2.000000
v -1.999999 6.005568 -4.000001
v -2.000000 6.005568 4.000000
v -3.999999 6.005568 -2.000001
v 4.000000 6.005568 -2.000000
v 2.000000 6.005568 -4.000000
v 2.000000 6.005568 4.000000
v -4.000000 6.005568 1.999999
v -2.000000 6.005568 -0.000001
v 2.000000 6.005568 -0.000000
v 0.000000 6.005568 -2.000000
v 0.000000 6.005568 2.000000
v 2.000000 6.005568 2.000000
v 2.000000 6.005568 -2.000000
v -1.999999 6.005568 -2.000001
v -2.000000 6.005568 1.999999
v -1.999999 0.005568 -4.000001
v -3.999999 0.005568 -4.000001
v -3.999999 0.005568 -2.000001
v -1.999999 0.005568 -2.000001
v 4.000000 0.005568 -4.000000
v 4.000000 0.005568 -2.000000
v 2.000000 0.005568 -4.000000
v 2.000000 0.005568 -2.000000
v 4.000000 0.005568 2.000000
v 4.000000 0.005568 4.000000
v 2.000000 0.005568 4.000000
v 2.000000 0.005568 2.000000
v -2.000000 0.005568 4.000000
v -4.000000 0.005568 3.999999
v -4.000000 0.005568 1.999999
v -2.000000 0.005568 1.999999
v 4.000000 7.300000 0.000002
v 0.000001 7.300000 -3.999999
v -0.000002 7.300000 4.000000
v -4.000000 7.300000 -0.000001
v -0.000001 7.300000 0.000001
v 3.999999 7.300000 2.000002
v -2.000000 7.300000 -4.000000
v -2.000002 7.300000 4.000000
v -4.000000 7.300000 -2.000000
v 4.000001 7.300000 -1.999998
v 2.000001 7.300000 -3.999999
v 1.999998 7.300000 4.000001
v -4.000001 7.300000 1.999999
v -0.000001 7.300000 2.000000
v 0.000000 7.300000 -1.999999
v 1.999999 7.300000 0.000001
v -2.000000 7.300000 0.000000
v -2.000000 7.300000 -2.000000
v 2.000000 7.300000 -1.999999
v 1.999999 7.300000 2.000001
v -2.000001 7.300000 2.000000
v -2.000002 9.300000 4.000000
v -4.000001 9.300000 3.999999
v -4.000001 9.300000 1.999999
v -2.000001 9.300000 2.000000
v -2.000002 11.300000 4.000000
v -4.000001 11.300000 3.999999
v -4.000001 11.300000 1.999999
v -2.000001 11.300000 2.000000
v -2.000000 9.300000 -4.000000
v -4.000000 9.300000 -4.000000
v -4.000000 9.300000 -2.000000
v -2.000000 9.300000 -2.000000
v -2.000000 11.300000 -4.000000
v -4.000000 11.300000 -4.000000
v -4.000000 11.300000 -2.000000
v -2.000000 11.300000 -2.000000
v -4.000001 9.300000 2.000000
v -2.000001 9.300000 2.000000
v -4.000001 11.300000 2.000000
v -2.000001 11.300000 2.000000
vn 0.0000 0.0000 1.0000
vn 1.0000 0.0000 0.0000
vn -1.0000 -0.0000 -0.0000
vn 0.0000 0.0000 -1.0000
vn 0.0000 -1.0000 0.0000
vn 0.0000 1.0000 0.0000
s off
f 3//1 42//1 16//1
f 53//1 68//1 7//1
f 51//2 14//2 9//2
f 53//1 16//1 11//1
f 54//3 8//3 17//3
f 15//4 52//4 47//4
f 22//5 17//5 28//5
f 23//5 24//5 27//5
f 26//5 11//5 25//5
f 23//5 25//5 13//5
f 9//5 26//5 23//5
f 14//4 41//4 26//4
f 19//5 24//5 10//5
f 1//4 36//4 19//4
f 18//5 23//5 27//5
f 4//3 32//3 17//3
f 10//5 28//5 15//5
f 24//5 22//5 28//5
f 29//5 12//5 22//5
f 25//5 22//5 13//5
f 25//5 16//5 29//5
f 33//5 31//5 30//5
f 15//4 31//4 4//4
f 28//2 30//2 15//2
f 17//1 33//1 28//1
f 35//5 36//5 34//5
f 27//1 35//1 18//1
f 19//3 37//3 27//3
f 18//2 34//2 1//2
f 38//5 40//5 41//5
f 20//1 39//1 2//1
f 26//3 40//3 20//3
f 2//2 38//2 14//2
f 42//5 44//5 45//5
f 21//3 43//3 3//3
f 16//2 45//2 29//2
f 29//4 44//4 21//4
f 65//6 48//6 57//6
f 60//6 61//6 64//6
f 63//6 49//6 62//6
f 63//6 50//6 60//6
f 52//6 60//6 47//6
f 8//4 75//4 52//4
f 64//6 46//6 55//6
f 56//6 55//6 5//6
f 47//6 64//6 56//6
f 65//6 6//6 51//6
f 61//6 51//6 46//6
f 61//6 59//6 65//6
f 66//6 48//6 59//6
f 62//6 59//6 50//6
f 49//6 66//6 62//6
f 68//3 73//3 69//3
f 7//3 69//3 58//3
f 58//4 70//4 66//4
f 66//2 67//2 53//2
f 73//6 71//6 74//6
f 70//2 71//2 67//2
f 69//4 74//4 70//4
f 67//1 72//1 68//1
f 77//3 80//3 76//3
f 52//2 78//2 63//2
f 63//1 77//1 54//1
f 54//3 76//3 8//3
f 79//6 81//6 82//6
f 75//2 82//2 78//2
f 81//6 86//6 82//6
f 76//4 79//4 75//4
f 84//1 85//1 83//1
f 77//5 84//5 83//5
f 82//2 84//2 78//2
f 77//3 85//3 81//3
f 3//1 43//1 42//1
f 53//1 67//1 68//1
f 18//2 1//2 5//2
f 55//2 46//2 9//2
f 18//2 5//2 55//2
f 2//2 14//2 51//2
f 9//2 18//2 55//2
f 51//2 6//2 2//2
f 9//2 46//2 51//2
f 20//1 2//1 6//1
f 57//1 48//1 11//1
f 20//1 6//1 57//1
f 3//1 16//1 53//1
f 11//1 20//1 57//1
f 53//1 7//1 3//1
f 11//1 48//1 53//1
f 21//3 3//3 7//3
f 58//3 49//3 12//3
f 21//3 7//3 58//3
f 17//3 12//3 49//3
f 8//3 4//3 17//3
f 49//3 54//3 17//3
f 12//3 21//3 58//3
f 56//4 5//4 1//4
f 19//4 10//4 47//4
f 56//4 1//4 19//4
f 8//4 52//4 15//4
f 47//4 56//4 19//4
f 15//4 4//4 8//4
f 47//4 10//4 15//4
f 22//5 12//5 17//5
f 23//5 13//5 24//5
f 26//5 20//5 11//5
f 23//5 26//5 25//5
f 9//5 14//5 26//5
f 14//4 38//4 41//4
f 19//5 27//5 24//5
f 1//4 34//4 36//4
f 18//5 9//5 23//5
f 4//3 31//3 32//3
f 10//5 24//5 28//5
f 24//5 13//5 22//5
f 29//5 21//5 12//5
f 25//5 29//5 22//5
f 25//5 11//5 16//5
f 33//5 32//5 31//5
f 15//4 30//4 31//4
f 28//2 33//2 30//2
f 17//1 32//1 33//1
f 35//5 37//5 36//5
f 27//1 37//1 35//1
f 19//3 36//3 37//3
f 18//2 35//2 34//2
f 38//5 39//5 40//5
f 20//1 40//1 39//1
f 26//3 41//3 40//3
f 2//2 39//2 38//2
f 42//5 43//5 44//5
f 21//3 44//3 43//3
f 16//2 42//2 45//2
f 29//4 45//4 44//4
f 65//6 59//6 48//6
f 60//6 50//6 61//6
f 63//6 54//6 49//6
f 63//6 62//6 50//6
f 52//6 63//6 60//6
f 8//4 76//4 75//4
f 64//6 61//6 46//6
f 56//6 64//6 55//6
f 47//6 60//6 64//6
f 65//6 57//6 6//6
f 61//6 65//6 51//6
f 61//6 50//6 59//6
f 66//6 53//6 48//6
f 62//6 66//6 59//6
f 49//6 58//6 66//6
f 68//3 72//3 73//3
f 7//3 68//3 69//3
f 58//4 69//4 70//4
f 66//2 70//2 67//2
f 73//6 72//6 71//6
f 70//2 74//2 71//2
f 69//4 73//4 74//4
f 67//1 71//1 72//1
f 77//3 81//3 80//3
f 52//2 75//2 78//2
f 63//1 78//1 77//1
f 54//3 77//3 76//3
f 79//6 80//6 81//6
f 75//2 79//2 82//2
f 81//6 85//6 86//6
f 76//4 80//4 79//4
f 84//1 86//1 85//1
f 77//5 78//5 84//5
f 82//2 86//2 84//2
f 77//3 83//3 85//3
